{
   
   
     
        "trademarkList": [
            {
                "tmId": 1,
                "tmName": "小米"
            },
            {
                "tmId": 3,
                "tmName": "华为"
            },
            {
                "tmId": 6,
                "tmName": "VIVO"
            },
            {
                "tmId": 2,
                "tmName": "苹果"
            },
            {
                "tmId": 4,
                "tmName": "尚硅谷"
            },
            {
                "tmId": 5,
                "tmName": "OPPO"
            },
            {
                "tmId": 7,
                "tmName": "三星"
            },
            {
                "tmId": 24,
                "tmName": "联想"
            },
            {
                "tmId": 26,
                "tmName": "海信"
            },
            {
                "tmId": 27,
                "tmName": "戴尔"
            }
        ],
        "attrsList": [
            {
                "attrId": 106,
                "attrValueList": [
                    "安卓手机",
                    "苹果手机"
                ],
                "attrName": "手机一级"
            },
            {
                "attrId": 107,
                "attrValueList": [
                    "小米",
                    "华为",
                    "苹果"
                ],
                "attrName": "二级手机"
            },
            {
                "attrId": 23,
                "attrValueList": [
                    "8G",
                    "4G",
                    "6G",
                    "12G",
                    "3G"
                ],
                "attrName": "运行内存"
            },
            {
                "attrId": 24,
                "attrValueList": [
                    "128G",
                    "256G",
                    "512G",
                    "32G",
                    "64G"
                ],
                "attrName": "机身内存"
            },
            {
                "attrId": 37,
                "attrValueList": [
                    "Java",
                    "C#",
                    "JavaScript"
                ],
                "attrName": "分类"
            },
            {
                "attrId": 112,
                "attrValueList": [
                    "6.85-6.94英寸",
                    " 6.75-6.84英寸",
                    "6.0-6.24英寸",
                    "6.55-6.64英寸",
                    "6.65-6.74英寸",
                    "6.95英寸及以上"
                ],
                "attrName": "屏幕尺寸"
            },
            {
                "attrId": 111,
                "attrValueList": [
                    "骁龙845",
                    "麒麟990",
                    "骁龙439",
                    "骁龙730G"
                ],
                "attrName": "CPU型号"
            },
            {
                "attrId": 17430,
                "attrValueList": [
                    "zwx"
                ],
                "attrName": "zwx"
            },
            {
                "attrId": 25,
                "attrValueList": [
                    "i5"
                ],
                "attrName": "处理器"
            },
            {
                "attrId": 26,
                "attrValueList": [
                    "14.0"
                ],
                "attrName": "屏幕尺寸"
            }
        ],
        "goodsList": [
            {
                "id": 16,
                "defaultImg": "http://47.93.148.192:8080/group1/M00/00/02/rBHu8l-sklaALrngAAHGDqdpFtU741.jpg",
                "title": "华为 HUAWEI P40 麒麟990 5G SoC芯片 5000万超感知徕卡三摄 30倍数字变焦 8GB+128GB亮黑色全网通5G手机",
                "price": 4488.0,
                "createTime": null,
                "tmId": null,
                "tmName": null,
                "category1Id": null,
                "category1Name": null,
                "category2Id": null,
                "category2Name": null,
                "category3Id": null,
                "category3Name": null,
                "hotScore": 0,
                "attrs": null
            },
            {
                "id": 6,
                "defaultImg": "http://47.93.148.192:8080/group1/M00/00/01/rBHu8l-rgJqAHPnoAAF9hoDNfsc505.jpg",
                "title": "Redmi 10X 4G Helio G85游戏芯 4800万超清四摄 5020mAh大电量 小孔全面屏 128GB大存储 8GB+128GB 冰雾白 游戏智能手机 小米 红米",
                "price": 1299.0,
                "createTime": null,
                "tmId": null,
                "tmName": null,
                "category1Id": null,
                "category1Name": null,
                "category2Id": null,
                "category2Name": null,
                "category3Id": null,
                "category3Name": null,
                "hotScore": 0,
                "attrs": null
            },
            {
                "id": 13,
                "defaultImg": "http://47.93.148.192:8080/group1/M00/00/02/rBHu8l-sklaALrngAAHGDqdpFtU741.jpg",
                "title": "华为 HUAWEI P40 麒麟990 5G SoC芯片 5000万超感知徕卡三摄 30倍数字变焦 6GB+128GB亮黑色全网通5G手机",
                "price": 4188.0,
                "createTime": null,
                "tmId": null,
                "tmName": null,
                "category1Id": null,
                "category1Name": null,
                "category2Id": null,
                "category2Name": null,
                "category3Id": null,
                "category3Name": null,
                "hotScore": 0,
                "attrs": null
            },
            {
                "id": 6138,
                "defaultImg": "",
                "title": "121",
                "price": 232.0,
                "createTime": null,
                "tmId": null,
                "tmName": null,
                "category1Id": null,
                "category1Name": null,
                "category2Id": null,
                "category2Name": null,
                "category3Id": null,
                "category3Name": null,
                "hotScore": 0,
                "attrs": null
            },
            {
                "id": 1270,
                "defaultImg": null,
                "title": "123",
                "price": 23.0,
                "createTime": null,
                "tmId": null,
                "tmName": null,
                "category1Id": null,
                "category1Name": null,
                "category2Id": null,
                "category2Name": null,
                "category3Id": null,
                "category3Name": null,
                "hotScore": 0,
                "attrs": null
            },
            {
                "id": 6186,
                "defaultImg": "",
                "title": "11",
                "price": 0.0,
                "createTime": null,
                "tmId": null,
                "tmName": null,
                "category1Id": null,
                "category1Name": null,
                "category2Id": null,
                "category2Name": null,
                "category3Id": null,
                "category3Name": null,
                "hotScore": 0,
                "attrs": null
            },
            {
                "id": 5902,
                "defaultImg": "http://47.93.148.192:8080/group1/M00/05/5B/rBHu8mI20PaAb3xUAAARcdwhzsk253.jpg",
                "title": "AAA",
                "price": 123.0,
                "createTime": null,
                "tmId": null,
                "tmName": null,
                "category1Id": null,
                "category1Name": null,
                "category2Id": null,
                "category2Name": null,
                "category3Id": null,
                "category3Name": null,
                "hotScore": 0,
                "attrs": null
            },
            {
                "id": 21,
                "defaultImg": "http://47.93.148.192:8080/group1/M00/02/DA/rBHu8mGxO7mAIZosAACYibCV0ks310.jpg",
                "title": "vivo S10 5G手机 8GB+256GB 青柠 超轻薄机身 前置4400万超清双摄 自然柔光人像 6nm旗舰芯片 拍照手机 青色",
                "price": 2424.0,
                "createTime": null,
                "tmId": null,
                "tmName": null,
                "category1Id": null,
                "category1Name": null,
                "category2Id": null,
                "category2Name": null,
                "category3Id": null,
                "category3Name": null,
                "hotScore": 0,
                "attrs": null
            },
            {
                "id": 3,
                "defaultImg": "http://47.93.148.192:8080/group1/M00/00/01/rBHu8l-rfvmAIpgZAAIvrX6L9fo612.jpg",
                "title": "小米10 至尊纪念版 双模5G 骁龙865 120HZ高刷新率 120倍长焦镜头 120W快充 8GB+128GB 透明版 游戏手机",
                "price": 5999.0,
                "createTime": null,
                "tmId": null,
                "tmName": null,
                "category1Id": null,
                "category1Name": null,
                "category2Id": null,
                "category2Name": null,
                "category3Id": null,
                "category3Name": null,
                "hotScore": 0,
                "attrs": null
            },
            {
                "id": 4225,
                "defaultImg": null,
                "title": "k40pro",
                "price": 1999.0,
                "createTime": null,
                "tmId": null,
                "tmName": null,
                "category1Id": null,
                "category1Name": null,
                "category2Id": null,
                "category2Name": null,
                "category3Id": null,
                "category3Name": null,
                "hotScore": 0,
                "attrs": null
            }
        ],
        "total": 150,
        "pageSize": 10,
        "pageNo": 1,
        "totalPages": 15,
    
    "ok": true
}